{
  "type": "FeatureCollection",
  "features": [
    {
      "type": "Feature",
      "geometry": {
        "bbox": [
          103.82928893900082,
          1.4226902635014564,
          103.83256274071347,
          1.4354830483007877
        ],
        "type": "Polygon",
        "coordinates": [
          [
            [
              103.83256274096628,
              1.434727733040226
            ],
            [
              103.8323500016409,
              1.4345314699554197
            ],
            [
              103.83167041704944,
              1.435191626977431
            ],
            [
              103.83134539835973,
              1.4352629951085971
            ],
            [
              103.83097901390981,
              1.435114310642887
            ],
            [
              103.82985622351605,
              1.4344006254958543
            ],
            [
              103.82960802815977,
              1.4340497305882898
            ],
            [
              103.82961984797724,
              1.4334490467884322
            ],
            [
              103.82978531627148,
              1.4306002594522043
            ],
            [
              103.83015760964676,
              1.430499154830539
            ],
            [
              103.83017533823426,
              1.4302731549974883
            ],
            [
              103.82983850177536,
              1.430070944101248
            ],
            [
              103.82988577833459,
              1.4292621025948342
            ],
            [
              103.82998623862757,
              1.429071787055145
            ],
            [
              103.8320959002281,
              1.4272162114217695
            ],
            [
              103.83218454150453,
              1.4268891063664162
            ],
            [
              103.83224954580088,
              1.4251346337863735
            ],
            [
              103.83159360324838,
              1.4235466869881856
            ],
            [
              103.8316054223453,
              1.4231422661534436
            ],
            [
              103.83175315739791,
              1.423011424242019
            ],
            [
              103.83174724818922,
              1.4226902665196968
            ],
            [
              103.8312508588473,
              1.422708108245213
            ],
            [
              103.83125676780215,
              1.4231660553186216
            ],
            [
              103.83135722721438,
              1.4236299498598946
            ],
            [
              103.8319540756695,
              1.4250513705651215
            ],
            [
              103.83201907894194,
              1.425319001966518
            ],
            [
              103.83194816516857,
              1.426942632519904
            ],
            [
              103.8317767921525,
              1.4272162112267355
            ],
            [
              103.8296966773979,
              1.429059891894624
            ],
            [
              103.82958439699226,
              1.4300352595272698
            ],
            [
              103.82930074470534,
              1.4302077326185887
            ],
            [
              103.82928892543815,
              1.4304575218901083
            ],
            [
              103.82955484893424,
              1.430624048589153
            ],
            [
              103.82934210420382,
              1.433918888131971
            ],
            [
              103.8294898390617,
              1.4343946775205356
            ],
            [
              103.8297912194176,
              1.4346623094140476
            ],
            [
              103.83105583615747,
              1.435441415735732
            ],
            [
              103.83137494532554,
              1.4354830475876088
            ],
            [
              103.83177087717588,
              1.4354116795655583
            ],
            [
              103.83256274096628,
              1.434727733040226
            ]
          ]
        ]
      },
      "properties": {
        "SITENAME": "Yishun Ring Road",
        "INC_CRC": "578A1C94",
        "FMEL_UPD_D": "2016-03-28T16:00:00.000Z"
      }
    },
    {
      "type": "Feature",
      "geometry": {
        "bbox": [
          103.71704187699527,
          1.345709647614798,
          103.7212360754065,
          1.350643737829222
        ],
        "type": "Polygon",
        "coordinates": [
          [
            [
              103.72108419017475,
              1.347087106607035
            ],
            [
              103.72108943321076,
              1.3470871068500656
            ],
            [
              103.72123624852522,
              1.3468602073626579
            ],
            [
              103.72058613256303,
              1.346422195252215
            ],
            [
              103.71983640096725,
              1.3459472401350328
            ],
            [
              103.71916006108378,
              1.3457097483081188
            ],
            [
              103.71855186392654,
              1.3458310880635478
            ],
            [
              103.71805375920984,
              1.3461898929319904
            ],
            [
              103.71765000900054,
              1.3469708534114926
            ],
            [
              103.71749267912551,
              1.3477940406789244
            ],
            [
              103.71752410841621,
              1.3484061614509093
            ],
            [
              103.71756602778783,
              1.3489338523904504
            ],
            [
              103.71749785081596,
              1.349303231401965
            ],
            [
              103.71704164690676,
              1.350559109232698
            ],
            [
              103.7172566075267,
              1.3506435498491447
            ],
            [
              103.71734575120107,
              1.3503902634287992
            ],
            [
              103.71755549904579,
              1.3498362000481605
            ],
            [
              103.7178124512666,
              1.3489180334975
            ],
            [
              103.71779675101301,
              1.3483059135304716
            ],
            [
              103.71785445569057,
              1.3476410282024192
            ],
            [
              103.718153355238,
              1.346648987135629
            ],
            [
              103.71828443870848,
              1.3464854097566963
            ],
            [
              103.71857806102977,
              1.3462163022819158
            ],
            [
              103.71883497423299,
              1.3461160535363608
            ],
            [
              103.71916528473051,
              1.3461266229063245
            ],
            [
              103.71945364895274,
              1.3461794053402514
            ],
            [
              103.71971055137615,
              1.3463113396594333
            ],
            [
              103.72025056953935,
              1.3466174245904643
            ],
            [
              103.72108419017475,
              1.347087106607035
            ]
          ]
        ]
      },
      "properties": {
        "SITENAME": "Jurong West Street 52",
        "INC_CRC": "51915DB9",
        "FMEL_UPD_D": "2016-03-28T16:00:00.000Z"
      }
    },
    {
      "type": "Feature",
      "geometry": {
        "bbox": [
          103.81027919392433,
          1.2863797596191373,
          103.81794821568266,
          1.2899222076836983
        ],
        "type": "Polygon",
        "coordinates": [
          [
            [
              103.81311546830135,
              1.2896750301750612
            ],
            [
              103.81311546827308,
              1.2896786119933241
            ],
            [
              103.81321511316082,
              1.2896033951830872
            ],
            [
              103.8132329073575,
              1.2895281777830145
            ],
            [
              103.81341440313258,
              1.289424307320747
            ],
            [
              103.81359945708579,
              1.2893920726507104
            ],
            [
              103.81430052538367,
              1.2894565502541535
            ],
            [
              103.81457098858971,
              1.2894458069010795
            ],
            [
              103.81476671929649,
              1.289324027508543
            ],
            [
              103.8149197458569,
              1.2891306120025412
            ],
            [
              103.81514394806025,
              1.2887688528581467
            ],
            [
              103.81532188453814,
              1.2887330362005016
            ],
            [
              103.81564572640963,
              1.289023163463484
            ],
            [
              103.81593753865015,
              1.2894852163433688
            ],
            [
              103.81593753743431,
              1.2896643057944837
            ],
            [
              103.81589483214104,
              1.2897574320351288
            ],
            [
              103.81600871019167,
              1.2899221951400097
            ],
            [
              103.81642508242666,
              1.2897180359596325
            ],
            [
              103.81631120445307,
              1.289538945744367
            ],
            [
              103.81615462084471,
              1.28949238139119
            ],
            [
              103.81584145669683,
              1.2889586925913021
            ],
            [
              103.81573825445335,
              1.2888476564117264
            ],
            [
              103.81556031946263,
              1.2886685657165355
            ],
            [
              103.8150727766703,
              1.2883354557907538
            ],
            [
              103.81485569617999,
              1.2881133832783846
            ],
            [
              103.81478808157613,
              1.2879522022699361
            ],
            [
              103.81483078711305,
              1.287834003490158
            ],
            [
              103.81500516517151,
              1.2877444600406525
            ],
            [
              103.81659591478346,
              1.2876513445146054
            ],
            [
              103.8179482296527,
              1.287594044473206
            ],
            [
              103.81793755438306,
              1.2874436092014312
            ],
            [
              103.81659591564781,
              1.287518818301244
            ],
            [
              103.81497313760211,
              1.2876119335965985
            ],
            [
              103.81469555612901,
              1.2877659485198074
            ],
            [
              103.81462794044923,
              1.2877623662120883
            ],
            [
              103.81449626903158,
              1.2875832757839516
            ],
            [
              103.81359236051524,
              1.2866806579226562
            ],
            [
              103.81316887469507,
              1.28642276573025
            ],
            [
              103.81284147279268,
              1.2863797816199296
            ],
            [
              103.81027919022691,
              1.2867916654297198
            ],
            [
              103.81030054114974,
              1.2869492643256284
            ],
            [
              103.81205143470333,
              1.2866305004148162
            ],
            [
              103.81274538616184,
              1.286523052426891
            ],
            [
              103.81305143597822,
              1.2865445456318092
            ],
            [
              103.81332901535869,
              1.2866555833107467
            ],
            [
              103.81348203906778,
              1.286823928646786
            ],
            [
              103.81382367374377,
              1.2871570377020702
            ],
            [
              103.81442509386711,
              1.2876799835442532
            ],
            [
              103.81454253047426,
              1.2878447467417065
            ],
            [
              103.81463861434224,
              1.2880739820089375
            ],
            [
              103.81474181599658,
              1.2882566540299152
            ],
            [
              103.81495533795359,
              1.2884572357787705
            ],
            [
              103.81505142266066,
              1.2885682719385183
            ],
            [
              103.81506209799441,
              1.2886864711071893
            ],
            [
              103.81477027918224,
              1.2891664287679985
            ],
            [
              103.81470978032718,
              1.2892416459291505
            ],
            [
              103.8145959005209,
              1.28932402624919
            ],
            [
              103.81447490370304,
              1.2893490978431454
            ],
            [
              103.8143788181713,
              1.289349097125082
            ],
            [
              103.81370977836518,
              1.2892846197923193
            ],
            [
              103.8135460770279,
              1.2892846185173195
            ],
            [
              103.81335034674237,
              1.2893455074646332
            ],
            [
              103.81320443844373,
              1.289417142094614
            ],
            [
              103.81311547053394,
              1.2893920688290876
            ],
            [
              103.81299447358575,
              1.2894314675345844
            ],
            [
              103.81295888568549,
              1.2895102665989013
            ],
            [
              103.81299447205055,
              1.2896248841653348
            ],
            [
              103.81311546830135,
              1.2896750301750612
            ]
          ]
        ]
      },
      "properties": {
        "SITENAME": "Lengkok Bahru",
        "INC_CRC": "ADC5DC88",
        "FMEL_UPD_D": "2016-03-28T16:00:00.000Z"
      }
    },
    {
      "type": "Feature",
      "geometry": {
        "bbox": [
          103.94420998235529,
          1.3453220284328036,
          103.9500798241115,
          1.3493557702578842
        ],
        "type": "Polygon",
        "coordinates": [
          [
            [
              103.94460419845163,
              1.3477694272180176
            ],
            [
              103.94473415727361,
              1.3475035811641352
            ],
            [
              103.9446670711369,
              1.3474065315140515
            ],
            [
              103.9446964138468,
              1.3472841592868623
            ],
            [
              103.94510726639864,
              1.3467735585920013
            ],
            [
              103.94579901759909,
              1.3461321345485402
            ],
            [
              103.94617633939865,
              1.3458493982051252
            ],
            [
              103.94657043692418,
              1.3456848121413043
            ],
            [
              103.94743830120906,
              1.345566620270018
            ],
            [
              103.94807976715465,
              1.3455032947456687
            ],
            [
              103.94833551598623,
              1.345499062989124
            ],
            [
              103.9485996540167,
              1.345579224435198
            ],
            [
              103.94981136367775,
              1.346553913366768
            ],
            [
              103.94990361113496,
              1.3467648931108867
            ],
            [
              103.94986589086552,
              1.3470433940512143
            ],
            [
              103.94844886886182,
              1.3487482140534488
            ],
            [
              103.94826020547163,
              1.3488368363455814
            ],
            [
              103.94804639780664,
              1.3491702014861562
            ],
            [
              103.94856209799524,
              1.3493558430763957
            ],
            [
              103.94875494052002,
              1.3489802820246766
            ],
            [
              103.94861657974445,
              1.3488832359030078
            ],
            [
              103.94866688395474,
              1.3487313249235886
            ],
            [
              103.95002521021478,
              1.3470476060717342
            ],
            [
              103.9500797023161,
              1.3467986420970237
            ],
            [
              103.9499622928005,
              1.3464526337477845
            ],
            [
              103.94942981015515,
              1.3460011531220022
            ],
            [
              103.94883443840801,
              1.345545455782354
            ],
            [
              103.94864157353153,
              1.345439972835238
            ],
            [
              103.94836904893643,
              1.345330274022415
            ],
            [
              103.94805460306374,
              1.3453218495799
            ],
            [
              103.94659139277913,
              1.345528682873368
            ],
            [
              103.94600024657353,
              1.345777671741008
            ],
            [
              103.94539234264869,
              1.3463093801218249
            ],
            [
              103.94492279179204,
              1.3467777867369315
            ],
            [
              103.94476348067298,
              1.346955020807541
            ],
            [
              103.94451613253841,
              1.3473052660113642
            ],
            [
              103.9443693911473,
              1.347305272745475
            ],
            [
              103.94421008263431,
              1.3475415823464327
            ],
            [
              103.94460419845163,
              1.3477694272180176
            ]
          ]
        ]
      },
      "properties": {
        "SITENAME": "Tampines Street 11",
        "INC_CRC": "661F0F2B",
        "FMEL_UPD_D": "2016-03-28T16:00:00.000Z"
      }
    },
    {
      "type": "Feature",
      "geometry": {
        "bbox": [
          103.92332149771148,
          1.3293026093364981,
          103.9318526333735,
          1.3342851907960855
        ],
        "type": "Polygon",
        "coordinates": [
          [
            [
              103.92675854688363,
              1.3297789343893405
            ],
            [
              103.92680785213771,
              1.329605225495639
            ],
            [
              103.92667963979466,
              1.329560562875073
            ],
            [
              103.92661553097761,
              1.32946626718067
            ],
            [
              103.92662045765655,
              1.329347153635783
            ],
            [
              103.92641827771509,
              1.3293024938201234
            ],
            [
              103.92624075936573,
              1.3294116878037445
            ],
            [
              103.9262013204988,
              1.3296945835805518
            ],
            [
              103.9263541946816,
              1.3298980631772916
            ],
            [
              103.92612247191431,
              1.3310395752404627
            ],
            [
              103.92602878220961,
              1.3311140246504998
            ],
            [
              103.92380480363086,
              1.330687284746691
            ],
            [
              103.92359769763912,
              1.3307865535503098
            ],
            [
              103.92332160761532,
              1.3323350378734489
            ],
            [
              103.92343503063829,
              1.3324938515435178
            ],
            [
              103.92428813470853,
              1.3327419728959233
            ],
            [
              103.92460866265739,
              1.3327667762526831
            ],
            [
              103.92531382084486,
              1.3327320084629601
            ],
            [
              103.92567379976389,
              1.332796514670319
            ],
            [
              103.92709399775931,
              1.3332381727692981
            ],
            [
              103.92826270243883,
              1.3335954678834856
            ],
            [
              103.92926374234447,
              1.3338286924982221
            ],
            [
              103.92990973354598,
              1.3339775587914597
            ],
            [
              103.93007739452173,
              1.333992441347547
            ],
            [
              103.93149265669683,
              1.3342852052759289
            ],
            [
              103.93150743846701,
              1.3339874212702332
            ],
            [
              103.93181804190247,
              1.3324438980823545
            ],
            [
              103.93185255248446,
              1.3322503375063
            ],
            [
              103.93181802613687,
              1.332046853534062
            ],
            [
              103.93169967344139,
              1.331937671054492
            ],
            [
              103.93050631807925,
              1.3317044550209836
            ],
            [
              103.930452071166,
              1.3316051960328745
            ],
            [
              103.93060490826683,
              1.3308508052496641
            ],
            [
              103.93074297840926,
              1.3307763539028783
            ],
            [
              103.93077748925735,
              1.330587756353799
            ],
            [
              103.93067392887707,
              1.3304438318405651
            ],
            [
              103.93047667968975,
              1.3303942090844258
            ],
            [
              103.93034847312255,
              1.3304984383294347
            ],
            [
              103.93030410099458,
              1.3307168146325752
            ],
            [
              103.93040272945726,
              1.3308408871634851
            ],
            [
              103.92988506175172,
              1.3335705890975351
            ],
            [
              103.92975685713667,
              1.333729411965924
            ],
            [
              103.92922921649658,
              1.3336351345885273
            ],
            [
              103.92835145714159,
              1.3334217574260445
            ],
            [
              103.92609294789224,
              1.3327270159767628
            ],
            [
              103.92601404353093,
              1.3325830903214289
            ],
            [
              103.9265563724369,
              1.329883166316091
            ],
            [
              103.92676347808761,
              1.3297789342015287
            ],
            [
              103.92675854688363,
              1.3297789343893405
            ]
          ]
        ]
      },
      "properties": {
        "SITENAME": "Bedok North Street 3",
        "INC_CRC": "243B593A",
        "FMEL_UPD_D": "2016-03-28T16:00:00.000Z"
      }
    },
    {
      "type": "Feature",
      "geometry": {
        "bbox": [
          103.78929117931685,
          1.4309622503834105,
          103.79252285937875,
          1.4340163182156689
        ],
        "type": "Polygon",
        "coordinates": [
          [
            [
              103.78964422909421,
              1.4322043483051738
            ],
            [
              103.78956789294126,
              1.4319898620590934
            ],
            [
              103.78929115818232,
              1.432069888358896
            ],
            [
              103.78935159010737,
              1.4322843743153668
            ],
            [
              103.78945337568099,
              1.4323580054067113
            ],
            [
              103.78977143479602,
              1.4336865368285765
            ],
            [
              103.78996546239274,
              1.4338946228176024
            ],
            [
              103.79028672544743,
              1.4340162770011382
            ],
            [
              103.79047439573927,
              1.4339906704162766
            ],
            [
              103.79214116698988,
              1.4335105113077204
            ],
            [
              103.79233838262806,
              1.4333280427173714
            ],
            [
              103.79250697194583,
              1.4330687431988218
            ],
            [
              103.79252288329458,
              1.4326653840386505
            ],
            [
              103.79241156012151,
              1.432306840221263
            ],
            [
              103.79188990966047,
              1.4318778611513994
            ],
            [
              103.79112651969763,
              1.431215185145716
            ],
            [
              103.79111697915047,
              1.4311095431951693
            ],
            [
              103.79094839729275,
              1.4309622817969743
            ],
            [
              103.79075118128351,
              1.4311703604025394
            ],
            [
              103.79094520929532,
              1.4313496349318027
            ],
            [
              103.79104381528062,
              1.4313560392597047
            ],
            [
              103.79221116614724,
              1.4323580568705039
            ],
            [
              103.79232249276637,
              1.432518122158847
            ],
            [
              103.79238292453144,
              1.4327582182263612
            ],
            [
              103.79236065475062,
              1.4329759038697667
            ],
            [
              103.79225886358796,
              1.4332095944456793
            ],
            [
              103.79200121167587,
              1.433411269565561
            ],
            [
              103.79041078158104,
              1.4338434110061116
            ],
            [
              103.79021356946691,
              1.4338306022128495
            ],
            [
              103.7900099977452,
              1.4337057489523561
            ],
            [
              103.78991457538784,
              1.4335488851161617
            ],
            [
              103.78958379130928,
              1.4323003851629048
            ],
            [
              103.7896474099817,
              1.4322043483661844
            ],
            [
              103.78964422909421,
              1.4322043483051738
            ]
          ]
        ]
      },
      "properties": {
        "SITENAME": "Woodlands Drive 14",
        "INC_CRC": "DD04AFCC",
        "FMEL_UPD_D": "2016-03-28T16:00:00.000Z"
      }
    },
    {
      "type": "Feature",
      "geometry": {
        "bbox": [
          103.911694051471,
          1.304130742041848,
          103.9171466266806,
          1.3071883972174951
        ],
        "type": "MultiPolygon",
        "coordinates": [
          [
            [
              [
                103.91172047193457,
                1.3059721769028079
              ],
              [
                103.91206066381551,
                1.3060427625767284
              ],
              [
                103.91206770820953,
                1.3058902254569125
              ],
              [
                103.91209589461822,
                1.3055709613751478
              ],
              [
                103.91197602880445,
                1.3045670596060845
              ],
              [
                103.91203594271144,
                1.304457089293975
              ],
              [
                103.91311092561389,
                1.3043293499326933
              ],
              [
                103.91323076303485,
                1.3044180303539976
              ],
              [
                103.91339646241971,
                1.305861804255229
              ],
              [
                103.91338589349996,
                1.3060107941286165
              ],
              [
                103.91324844095269,
                1.3061668827908612
              ],
              [
                103.91312861591955,
                1.3064719603549027
              ],
              [
                103.91352689368061,
                1.3065854633739022
              ],
              [
                103.91360794750572,
                1.3062449133586862
              ],
              [
                103.91352333237614,
                1.3054254738015274
              ],
              [
                103.91363259032687,
                1.3053296913129129
              ],
              [
                103.91679762215864,
                1.3049464718067445
              ],
              [
                103.9168681148594,
                1.30499967994807
              ],
              [
                103.91691042001351,
                1.3053189417535982
              ],
              [
                103.9169069015664,
                1.3055034050723555
              ],
              [
                103.91684699242171,
                1.3057517228642508
              ],
              [
                103.9165685908542,
                1.306901079668212
              ],
              [
                103.91645228328673,
                1.30697912564501
              ],
              [
                103.91641351732123,
                1.307103284852721
              ],
              [
                103.91676597516056,
                1.3071884099734001
              ],
              [
                103.9168012169209,
                1.3070748929619744
              ],
              [
                103.91677301728753,
                1.3069755675759078
              ],
              [
                103.9171465695562,
                1.3054643759445577
              ],
              [
                103.91707605395762,
                1.3047194308803716
              ],
              [
                103.91357971599993,
                1.3051381351323834
              ],
              [
                103.9134986499618,
                1.3050920218956354
              ],
              [
                103.91342461348131,
                1.3044286662368703
              ],
              [
                103.9133717406587,
                1.304283225823758
              ],
              [
                103.91315321396289,
                1.3041306959028018
              ],
              [
                103.91195839646052,
                1.3042584390563374
              ],
              [
                103.91177512257218,
                1.30434003433551
              ],
              [
                103.91191614275763,
                1.3055745143935524
              ],
              [
                103.91186328120996,
                1.305790905550059
              ],
              [
                103.91174697265329,
                1.3058405724019737
              ],
              [
                103.91172047193457,
                1.3059721769028079
              ]
            ]
          ],
          [
            [
              [
                103.9116941125151,
                1.306103079395517
              ],
              [
                103.91172047193457,
                1.3059721769028079
              ],
              [
                103.91171878032046,
                1.3059718259541757
              ],
              [
                103.9116941125151,
                1.306103079395517
              ]
            ]
          ]
        ]
      },
      "properties": {
        "SITENAME": "Marine Parade",
        "INC_CRC": "8900E8EA",
        "FMEL_UPD_D": "2016-03-28T16:00:00.000Z"
      }
    },
    {
      "type": "Feature",
      "geometry": {
        "bbox": [
          103.82053457285768,
          1.2826099871621401,
          103.82269236066168,
          1.28623977821004
        ],
        "type": "Polygon",
        "coordinates": [
          [
            [
              103.82177191360064,
              1.2827669291855697
            ],
            [
              103.82180712209994,
              1.2828580536056293
            ],
            [
              103.82191777868434,
              1.2828580541048333
            ],
            [
              103.8220636430246,
              1.283111177539691
            ],
            [
              103.8222447140639,
              1.283895859081751
            ],
            [
              103.82073575789616,
              1.2843767853763182
            ],
            [
              103.82066031045423,
              1.2843312229077661
            ],
            [
              103.82064522126875,
              1.2842552859621763
            ],
            [
              103.82053456450245,
              1.28429072260164
            ],
            [
              103.82070054762475,
              1.2846501578507172
            ],
            [
              103.8207759954856,
              1.284624845928905
            ],
            [
              103.82075084668881,
              1.2845337216091102
            ],
            [
              103.82227992224718,
              1.2840679827290031
            ],
            [
              103.82243584467626,
              1.2847210402716918
            ],
            [
              103.82258170731137,
              1.285429784769286
            ],
            [
              103.82248110933713,
              1.2856727822129437
            ],
            [
              103.82185237622258,
              1.286098025769223
            ],
            [
              103.82196806214016,
              1.2862397750675068
            ],
            [
              103.82262697489368,
              1.2856829077402219
            ],
            [
              103.82269236368033,
              1.2855107845324736
            ],
            [
              103.82220447829094,
              1.2831972399301794
            ],
            [
              103.82204855489128,
              1.282787180298085
            ],
            [
              103.82213909242434,
              1.2827163063076952
            ],
            [
              103.82211897347737,
              1.282609994642173
            ],
            [
              103.82177191360064,
              1.2827669291855697
            ]
          ]
        ]
      },
      "properties": {
        "SITENAME": "Bukit Merah View",
        "INC_CRC": "2AED1B25",
        "FMEL_UPD_D": "2016-03-28T16:00:00.000Z"
      }
    }
  ],
  "fileName": "SilverZone_Feb2019/SILVERZONE"
}