{
  "images" : [
    {
      "filename" : "Property 1=park(no lot) carpark-unselelcted-light.png",
      "idiom" : "universal",
      "scale" : "1x"
    },
    {
      "appearances" : [
        {
          "appearance" : "luminosity",
          "value" : "dark"
        }
      ],
      "filename" : "item=season parking, mode=dark, state=unselected.png",
      "idiom" : "universal",
      "scale" : "1x"
    },
    {
      "filename" : "Property 1=park(no lot) carpark-unselelcted-light@2x.png",
      "idiom" : "universal",
      "scale" : "2x"
    },
    {
      "appearances" : [
        {
          "appearance" : "luminosity",
          "value" : "dark"
        }
      ],
      "filename" : "item=season parking, mode=dark, state=unselected@2x.png",
      "idiom" : "universal",
      "scale" : "2x"
    },
    {
      "filename" : "Property 1=park(no lot) carpark-unselelcted-light@3x.png",
      "idiom" : "universal",
      "scale" : "3x"
    },
    {
      "appearances" : [
        {
          "appearance" : "luminosity",
          "value" : "dark"
        }
      ],
      "filename" : "item=season parking, mode=dark, state=unselected@3x.png",
      "idiom" : "universal",
      "scale" : "3x"
    }
  ],
  "info" : {
    "author" : "xcode",
    "version" : 1
  }
}
