{
  "images" : [
    {
      "filename" : "Property 1=park(no data) carpark-unselelcted-light.png",
      "idiom" : "universal",
      "scale" : "1x"
    },
    {
      "filename" : "Property 1=park(no data) carpark-unselelcted-light@2x.png",
      "idiom" : "universal",
      "scale" : "2x"
    },
    {
      "filename" : "Property 1=park(no data) carpark-unselelcted-light@3x.png",
      "idiom" : "universal",
      "scale" : "3x"
    }
  ],
  "info" : {
    "author" : "xcode",
    "version" : 1
  }
}
