{
    "start": {
        "name": "Jalan Pelepah",
        "latitude": 1.2741751,
        "longitude":103.7953719,
        "id":"1111",
    },
    "destination": {
        "name": "mTower",
        "latitude": 1.2745684,
        "longitude":103.8011035,
        "id":"2222"
    },
    "waypoints": [
        {
            "name": "Carpark Lots",
            "latitude": 1.274138,
            "longitude":103.798474,
            "id":"10"
        },
        {
            "name": "Car Park Level3",
            "latitude": 1.2745684,
            "longitude":103.8011035,
            "id":"11"
        }
        
    ]
}
