{
    "start": {
        "name": "mTower",
        "latitude": 1.2742629,
        "longitude":103.8016415,
        "id":"1111",
    },
    "destination": {
        "name": "Jalan Pelepah car park",
        "latitude": 1.274167,
        "longitude":103.795401,
        "id":"2222"
    },
    "waypoints": [
        {
            "name": "Accident",
            "latitude": 1.2823414,
            "longitude":103.8014548,
            "id":"1"
        },
        {
            "name": "ERP",
            "latitude": 1.289175,
            "longitude":103.7929368,
            "id":"2"
        },
        {
            "name": "Paid",
            "latitude": 1.2861917,
            "longitude":103.7976042,
            "id":"36"
        },
        {
            "name": "ETA Expressway",
            "latitude": 1.2819027,
            "longitude":103.8018133,
            "id":"80"
            
        },
        {
            "name": "Speed limit",
            "latitude": 1.2782399,
            "longitude":103.8030403,
            "id":"4"
        },
        {
            "name": "School zone",
            "latitude": 1.2755583,
            "longitude":103.8020792,
            "id":"5",
        },
        {
            "name": "Cyclist 1",
            "latitude": 1.2729627482405566,
            "longitude":103.80072389884398,
            "id":"6"
        },
        {
            "name": "Cyclist 2",
            "latitude": 1.2732113643120655,
            "longitude":103.80017071839873,
            "id":"7"
        },
        {
            "name": "ParkingAPI",
            "latitude": 1.2735737,
            "longitude":103.7994473,
            "id":"8",
        },
        {
            "name": "Roadside",
            "latitude": 1.273825,
            "longitude":103.798756,
            "id":"9"
        }
    ]
}
