{
    "UserAgent": "aws-amplify/cli",
    "Version": "0.1.0",
    "IdentityManager": {
        "Default": {}
    },
    "CredentialsProvider": {
        "CognitoIdentity": {
            "Default": {
                "PoolId": "ap-southeast-1:9f7ed830-5b61-4ebc-a2e0-ab145c7e0178",
                "Region": "ap-southeast-1"
            }
        }
    },
    "CognitoUserPool": {
        "Default": {
            "PoolId": "ap-southeast-1_KjGDXtePq",
            "AppClientId": "3okvu660cfmdfgbfc283h032an",
            "Region": "ap-southeast-1"
        }
    },
    "Auth": {
        "Default": {
            "OAuth": {
                "WebDomain": "qa-breeze.auth.ap-southeast-1.amazoncognito.com",
                "AppClientId": "3okvu660cfmdfgbfc283h032an",
                "SignInRedirectURI": "breezeqa://",
                "SignOutRedirectURI": "breeze://",
                "Scopes": [
                    "aws.cognito.signin.user.admin",
                    "openid",
                    "profile"
                ]
            },
            "authenticationFlowType": "CUSTOM_AUTH",
            "socialProviders": [
                "FACEBOOK",
                "GOOGLE",
                "APPLE"
            ],
            "usernameAttributes": [
                "EMAIL"
            ],
            "signupAttributes": [],
            "passwordProtectionSettings": {
                "passwordPolicyMinLength": 8,
                "passwordPolicyCharacters": [
                    "REQUIRES_LOWERCASE",
                    "REQUIRES_UPPERCASE",
                    "REQUIRES_NUMBERS",
                    "REQUIRES_SYMBOLS"
                ]
            },
            "mfaConfiguration": "OFF",
            "mfaTypes": [],
            "verificationMechanisms": [
                "EMAIL",
                "PHONE_NUMBER"
            ]
        }
    },
    "AppSync": {
        "Default": {
            "ApiUrl": "https://hsjyntfl6vfxfcbya6rr2mi2p4.appsync-api.ap-southeast-1.amazonaws.com/graphql",
            "Region": "ap-southeast-1",
            "AuthMode": "AMAZON_COGNITO_USER_POOLS",
            "ClientDatabasePrefix": "dev-breeze-notification_AMAZON_COGNITO_USER_POOLS"
        }
    }
}
