<svg width="56" height="56" viewBox="0 0 56 56" fill="none" xmlns="http://www.w3.org/2000/svg">
<g filter="url(#filter0_d_23644_337250)">
<circle cx="28" cy="26" r="24" fill="#18C970"/>
</g>
<path d="M21.8039 20.915C22.9257 20.915 23.8358 19.9804 23.8358 18.8286C23.8358 17.6767 22.9257 16.7422 21.8039 16.7422C20.6821 16.7422 19.772 17.6767 19.772 18.8286C19.772 19.9804 20.6821 20.915 21.8039 20.915ZM25.8042 27.3958L24.8179 26.8829L24.4073 25.605C23.785 23.6664 22.0494 22.3102 20.081 22.3059C18.5571 22.3015 17.7147 22.7449 16.1315 23.4012C15.2171 23.7794 14.4678 24.4966 14.0276 25.4094L13.744 26.0005C13.4138 26.6873 13.6805 27.5219 14.3451 27.8652C15.0055 28.2086 15.8098 27.9304 16.1442 27.2437L16.4278 26.6525C16.576 26.3483 16.8215 26.1092 17.1263 25.9831L18.2608 25.5137L17.6173 28.1521C17.3972 29.0562 17.6342 30.0168 18.2481 30.7079L20.7837 33.5507C21.0885 33.894 21.3044 34.307 21.4145 34.7547L22.1891 37.9408C22.3712 38.684 23.1077 39.1404 23.8316 38.9535C24.5555 38.7666 24.9999 38.0103 24.8179 37.267L23.8782 33.3985C23.7681 32.9508 23.5522 32.5335 23.2474 32.1945L21.3213 30.0342L22.0494 27.0481L22.2823 27.7653C22.5066 28.4651 22.9892 29.0432 23.6242 29.3735L24.6105 29.8864C25.2709 30.2298 26.0752 29.9516 26.4096 29.2649C26.7355 28.5824 26.4688 27.7392 25.8042 27.3958ZM16.1145 33.5115C15.9791 33.8636 15.7759 34.1809 15.5134 34.4461L13.3969 36.6237C12.8677 37.1671 12.8677 38.0494 13.3969 38.5928C13.926 39.1361 14.7811 39.1361 15.3102 38.5928L17.8247 36.0108C18.083 35.7457 18.2862 35.4284 18.4258 35.0763L18.9973 33.6072C16.6564 30.9861 17.3591 31.7903 16.9908 31.273L16.1145 33.5115Z" fill="#FCFCFC"/>
<path fill-rule="evenodd" clip-rule="evenodd" d="M28.7394 38.2048H35.8366L35.835 38.2081C38.7026 38.2081 41.1116 35.8859 41.0629 33.0483C41.0159 30.2906 38.7345 28.0631 35.9374 28.0631H34.0811C32.9673 28.0631 32.0685 27.1405 32.124 26.0268C32.176 24.9845 33.0849 24.1849 34.1382 24.1849H36.7152C37.0462 24.1849 37.315 23.919 37.315 23.5915C37.315 23.264 37.0462 22.998 36.7152 22.998H34.0811C32.3004 22.998 30.859 24.4659 30.9262 26.2429C30.9917 27.9334 32.4499 29.2467 34.16 29.2467H35.9391C38.1449 29.2467 39.9306 31.0552 39.8651 33.2511C39.8013 35.3639 37.992 37.0196 35.8551 37.0196H28.7857C28.5919 36.6914 28.2321 36.4708 27.8203 36.4708C27.2033 36.4708 26.7031 36.9657 26.7031 37.5763C26.7031 38.1868 27.2033 38.6817 27.8203 38.6817C28.2013 38.6817 28.5378 38.493 28.7394 38.2048Z" fill="#FCFCFC"/>
<path fill-rule="evenodd" clip-rule="evenodd" d="M39.9839 22.6336C41.6041 22.1622 42.7881 20.6664 42.7881 18.8941C42.7881 16.7434 41.0447 15 38.8941 15C36.7434 15 35 16.7434 35 18.8941C35 20.6674 36.1854 22.1639 37.8071 22.6344L38.5488 23.9191C38.7028 24.1858 39.0877 24.1858 39.2416 23.9191L39.9839 22.6336Z" fill="#FCFCFC"/>
<defs>
<filter id="filter0_d_23644_337250" x="0" y="0" width="56" height="56" filterUnits="userSpaceOnUse" color-interpolation-filters="sRGB">
<feFlood flood-opacity="0" result="BackgroundImageFix"/>
<feColorMatrix in="SourceAlpha" type="matrix" values="0 0 0 0 0 0 0 0 0 0 0 0 0 0 0 0 0 0 127 0" result="hardAlpha"/>
<feOffset dy="2"/>
<feGaussianBlur stdDeviation="2"/>
<feColorMatrix type="matrix" values="0 0 0 0 0 0 0 0 0 0 0 0 0 0 0 0 0 0 0.15 0"/>
<feBlend mode="normal" in2="BackgroundImageFix" result="effect1_dropShadow_23644_337250"/>
<feBlend mode="normal" in="SourceGraphic" in2="effect1_dropShadow_23644_337250" result="shape"/>
</filter>
</defs>
</svg>
