{
  "images" : [
    {
      "filename" : "Group 6643145.png",
      "idiom" : "universal",
      "scale" : "1x"
    },
    {
      "appearances" : [
        {
          "appearance" : "luminosity",
          "value" : "dark"
        }
      ],
      "filename" : "Property 1=dark-unselected.png",
      "idiom" : "universal",
      "scale" : "1x"
    },
    {
      "filename" : "Group 6643145@2x.png",
      "idiom" : "universal",
      "scale" : "2x"
    },
    {
      "appearances" : [
        {
          "appearance" : "luminosity",
          "value" : "dark"
        }
      ],
      "filename" : "Property 1=dark-unselected@2x.png",
      "idiom" : "universal",
      "scale" : "2x"
    },
    {
      "filename" : "Group 6643145@3x.png",
      "idiom" : "universal",
      "scale" : "3x"
    },
    {
      "appearances" : [
        {
          "appearance" : "luminosity",
          "value" : "dark"
        }
      ],
      "filename" : "Property 1=dark-unselected@3x.png",
      "idiom" : "universal",
      "scale" : "3x"
    }
  ],
  "info" : {
    "author" : "xcode",
    "version" : 1
  }
}
