{
  "images" : [
    {
      "filename" : "Property 1=selected, Property 2=with more lots, mode=light.png",
      "idiom" : "universal",
      "scale" : "1x"
    },
    {
      "appearances" : [
        {
          "appearance" : "luminosity",
          "value" : "dark"
        }
      ],
      "filename" : "state=selected, item=with more lots, mode=dark.png",
      "idiom" : "universal",
      "scale" : "1x"
    },
    {
      "filename" : "Property 1=selected, Property 2=with more lots, mode=light@2x.png",
      "idiom" : "universal",
      "scale" : "2x"
    },
    {
      "appearances" : [
        {
          "appearance" : "luminosity",
          "value" : "dark"
        }
      ],
      "filename" : "state=selected, item=with more lots, mode=dark@2x.png",
      "idiom" : "universal",
      "scale" : "2x"
    },
    {
      "filename" : "Property 1=selected, Property 2=with more lots, mode=light@3x.png",
      "idiom" : "universal",
      "scale" : "3x"
    },
    {
      "appearances" : [
        {
          "appearance" : "luminosity",
          "value" : "dark"
        }
      ],
      "filename" : "state=selected, item=with more lots, mode=dark@3x.png",
      "idiom" : "universal",
      "scale" : "3x"
    }
  ],
  "info" : {
    "author" : "xcode",
    "version" : 1
  }
}
