<svg width="50" height="50" viewBox="0 0 50 50" fill="none" xmlns="http://www.w3.org/2000/svg">
<circle cx="25" cy="25" r="24" fill="#B155F8" stroke="#B155F8"/>
<path fill-rule="evenodd" clip-rule="evenodd" d="M27.9053 17.4961C29.7802 17.4961 31.3057 19.0216 31.3057 20.8965C31.3057 22.7715 29.7802 24.297 27.9053 24.297H22.7062H22.2969V17.4961H22.7062H27.9053M27.9048 13H22.7057H18.8499C18.2703 13 17.8008 13.4699 17.8008 14.0491V28.7921V38.1646C17.8008 38.7442 18.2703 39.2137 18.8499 39.2137H21.6562C22.2358 39.2137 22.7057 38.7442 22.7057 38.1646V28.7921H27.9048C32.2657 28.7921 35.8008 25.257 35.8008 20.8961C35.8008 16.5351 32.2657 13 27.9048 13Z" fill="#390561"/>
</svg>
