{
  "images" : [
    {
      "filename" : "cp_hpark@2x.png",
      "idiom" : "car",
      "scale" : "2x"
    },
    {
      "filename" : "cp_hpark@3x.png",
      "idiom" : "car",
      "scale" : "3x"
    }
  ],
  "info" : {
    "author" : "xcode",
    "version" : 1
  }
}
