{
  "images" : [
    {
      "idiom" : "universal",
      "scale" : "1x"
    },
    {
      "filename" : "busLaneIcon@2x.png",
      "idiom" : "universal",
      "scale" : "2x"
    },
    {
      "filename" : "busLaneIcon@3x.png",
      "idiom" : "universal",
      "scale" : "3x"
    },
    {
      "filename" : "busLaneIcon@2x 1.png",
      "idiom" : "car",
      "scale" : "2x"
    },
    {
      "filename" : "busLaneIcon@3x 1.png",
      "idiom" : "car",
      "scale" : "3x"
    }
  ],
  "info" : {
    "author" : "xcode",
    "version" : 1
  }
}
