{
  "images" : [
    {
      "filename" : "arrows.pdf",
      "idiom" : "universal"
    }
  ],
  "info" : {
    "author" : "xcode",
    "version" : 1
  },
  "properties" : {
    "preserves-vector-representation" : true,
    "template-rendering-intent" : "original"
  }
}
