{
  "images" : [
    {
      "filename" : "Property 1=Navigation Alert Icon, Property 2=School Zone.png",
      "idiom" : "universal",
      "scale" : "1x"
    },
    {
      "appearances" : [
        {
          "appearance" : "luminosity",
          "value" : "dark"
        }
      ],
      "filename" : "Property 1=Navigation Alert Icon, Property 2=School Zone (Dark).png",
      "idiom" : "universal",
      "scale" : "1x"
    },
    {
      "filename" : "Property 1=Navigation Alert Icon, Property 2=School Zone@2x.png",
      "idiom" : "universal",
      "scale" : "2x"
    },
    {
      "appearances" : [
        {
          "appearance" : "luminosity",
          "value" : "dark"
        }
      ],
      "filename" : "Property 1=Navigation Alert Icon, Property 2=School Zone (Dark)@2x.png",
      "idiom" : "universal",
      "scale" : "2x"
    },
    {
      "filename" : "Property 1=Navigation Alert Icon, Property 2=School Zone@3x.png",
      "idiom" : "universal",
      "scale" : "3x"
    },
    {
      "appearances" : [
        {
          "appearance" : "luminosity",
          "value" : "dark"
        }
      ],
      "filename" : "Property 1=Navigation Alert Icon, Property 2=School Zone (Dark)@3x.png",
      "idiom" : "universal",
      "scale" : "3x"
    }
  ],
  "info" : {
    "author" : "xcode",
    "version" : 1
  }
}
