{
    "UserAgent": "aws-amplify-cli/2.0",
    "Version": "1.0",
    "analytics":{
        "plugins":{
            "awsPinpointAnalyticsPlugin": {
                "pinpointAnalytics": {
                    "appId": "0cdf743a892d427eb674ab5b5da609e7",
                    "region": "ap-southeast-1"
                },
                "pinpointTargeting": {
                    "region": "ap-southeast-1"
                },
                "autoFlushEventsInterval": 5
            }
        }
    },
    "api": {
            "plugins": {
                "awsAPIPlugin": {
                    "AppSync": {
                        "endpointType": "GraphQL",
                        "endpoint": "https://hmxxbelqubetrjth4j5i2x4cqm.appsync-api.ap-southeast-1.amazonaws.com/graphql",
                        "region": "ap-southeast-1",
                        "authorizationType": "AMAZON_COGNITO_USER_POOLS",
                        "aws_appsync_ClientDatabasePrefix": "da2-3mtluuzlj5aopcjgj6skbgccda"
                    }
                }
            }
        },
    "auth": {
        "plugins": {
            "awsCognitoAuthPlugin": {
                "UserAgent": "aws-amplify/cli",
                "Version": "0.1.0",
                "IdentityManager": {
                    "Default": {}
                },
                "CredentialsProvider": {
                    "CognitoIdentity": {
                        "Default": {
                            "PoolId": "ap-southeast-1:6d42631e-023d-4522-a9da-019ac452f4e0",
                            "Region": "ap-southeast-1"
                        }
                    }
                },
                "CognitoUserPool": {
                    "Default": {
                        "PoolId": "ap-southeast-1_sRLjW2VwS",
                        "AppClientId": "50kknqfo4jci774lfuv6otkd1m",
                        "Region": "ap-southeast-1"
                    }
                },
                "Auth": {
                    "Default": {
                        "OAuth": {
                            "WebDomain": "dev-breeze.auth.ap-southeast-1.amazoncognito.com",
                            "AppClientId": "50kknqfo4jci774lfuv6otkd1m",
                            "SignInRedirectURI": "breeze://",
                            "SignOutRedirectURI": "breeze://",
                            "Scopes": [
                                "openid",
                                "profile",
                                "aws.cognito.signin.user.admin"
                            ]
                        },
                        "authenticationFlowType": "CUSTOM_AUTH"
                    }
                }
            }
        }
    }
}
