{
  "images" : [
    {
      "filename" : "amenities stand (IOS).png",
      "idiom" : "universal",
      "scale" : "1x"
    },
    {
      "appearances" : [
        {
          "appearance" : "luminosity",
          "value" : "dark"
        }
      ],
      "filename" : "item=office, mode=dark, state=selected.png",
      "idiom" : "universal",
      "scale" : "1x"
    },
    {
      "filename" : "amenities stand (IOS)@2x.png",
      "idiom" : "universal",
      "scale" : "2x"
    },
    {
      "appearances" : [
        {
          "appearance" : "luminosity",
          "value" : "dark"
        }
      ],
      "filename" : "item=office, mode=dark, state=selected@2x.png",
      "idiom" : "universal",
      "scale" : "2x"
    },
    {
      "filename" : "amenities stand (IOS)@3x.png",
      "idiom" : "universal",
      "scale" : "3x"
    },
    {
      "appearances" : [
        {
          "appearance" : "luminosity",
          "value" : "dark"
        }
      ],
      "filename" : "item=office, mode=dark, state=selected@3x.png",
      "idiom" : "universal",
      "scale" : "3x"
    }
  ],
  "info" : {
    "author" : "xcode",
    "version" : 1
  }
}
