<svg width="50" height="50" viewBox="0 0 50 50" fill="none" xmlns="http://www.w3.org/2000/svg">
<circle cx="25" cy="25" r="24" fill="#222638" stroke="#787E98" stroke-width="0.5"/>
<path fill-rule="evenodd" clip-rule="evenodd" d="M24.7096 19.24L21.4842 18.1816V33.4544L29.2418 35.9999V28.0314C28.7059 27.7742 28.3759 27.2015 28.3759 26.6196V23.3833C26.4853 22.8201 25.0426 21.2187 24.7096 19.24ZM30.5347 28.0154V35.9999L36.1865 33.7746C36.4264 33.6802 36.6321 33.5171 36.777 33.3065C36.9219 33.0959 36.9994 32.8473 36.9994 32.5929V18.8188C36.9994 18.3686 36.5376 18.0607 36.1129 18.2278L35.1 18.6816C34.9666 20.9143 33.4347 22.7692 31.3682 23.3839V26.6196C31.3682 27.1897 31.0516 27.751 30.5347 28.0154ZM34.1757 19.0957C33.864 20.9429 32.3916 22.3957 30.5347 22.6781V20.7271L34.1757 19.0957ZM25.6743 19.5565L29.2418 20.7271V22.6826C27.5284 22.4343 26.1373 21.1904 25.6743 19.5565ZM13.7266 35.3627V21.5886C13.7266 21.3342 13.8041 21.0857 13.949 20.8751C14.0939 20.6645 14.2996 20.5014 14.5395 20.4069L20.1912 18.1816V33.4544L14.613 35.9538C14.1884 36.1208 13.7266 35.813 13.7266 35.3627Z" fill="#787E98"/>
<path d="M29.8715 13C26.9092 13 24.5078 15.4014 24.5078 18.3637C24.5078 20.7601 26.0787 22.7882 28.247 23.4767V26.6189C28.247 27.4634 28.8939 28.299 29.8704 28.299C30.8472 28.299 31.4938 27.4633 31.4938 26.6189V23.4773C33.6633 22.7895 35.2351 20.7608 35.2351 18.3637C35.2351 15.4014 32.8337 13 29.8715 13Z" fill="#787E98" stroke="#222638" stroke-width="2"/>
</svg>
