{
  "images" : [
    {
      "filename" : "item=voucher with low lots bar, mode=light, state=select.png",
      "idiom" : "universal",
      "scale" : "1x"
    },
    {
      "appearances" : [
        {
          "appearance" : "luminosity",
          "value" : "dark"
        }
      ],
      "filename" : "item=voucher low, mode=dark, state=selected.png",
      "idiom" : "universal",
      "scale" : "1x"
    },
    {
      "filename" : "item=voucher with low lots bar, mode=light, state=select@2x.png",
      "idiom" : "universal",
      "scale" : "2x"
    },
    {
      "appearances" : [
        {
          "appearance" : "luminosity",
          "value" : "dark"
        }
      ],
      "filename" : "item=voucher low, mode=dark, state=selected@2x.png",
      "idiom" : "universal",
      "scale" : "2x"
    },
    {
      "filename" : "item=voucher with low lots bar, mode=light, state=select@3x.png",
      "idiom" : "universal",
      "scale" : "3x"
    },
    {
      "appearances" : [
        {
          "appearance" : "luminosity",
          "value" : "dark"
        }
      ],
      "filename" : "item=voucher low, mode=dark, state=selected@3x.png",
      "idiom" : "universal",
      "scale" : "3x"
    }
  ],
  "info" : {
    "author" : "xcode",
    "version" : 1
  }
}
