{
  "project_info": {
    "project_number": "962802254962",
    "project_id": "qa-breeze-e803d",
    "storage_bucket": "qa-breeze-e803d.appspot.com"
  },
  "client": [
    {
      "client_info": {
        "mobilesdk_app_id": "1:962802254962:android:f72651dc609ec4c423aeeb",
        "android_client_info": {
          "package_name": "com.ncs.breeze"
        }
      },
      "oauth_client": [
        {
          "client_id": "962802254962-q8q44r4l7v76m4hv7lq3o495ontnh3id.apps.googleusercontent.com",
          "client_type": 3
        }
      ],
      "api_key": [
        {
          "current_key": "AIzaSyAIsrSFabqgoXXW60NMzgWIkvb0Muo2zcw"
        }
      ],
      "services": {
        "appinvite_service": {
          "other_platform_oauth_client": [
            {
              "client_id": "962802254962-q8q44r4l7v76m4hv7lq3o495ontnh3id.apps.googleusercontent.com",
              "client_type": 3
            },
            {
              "client_id": "962802254962-sknlqk7hbjlgjeenbrho1nqnnv1pdneu.apps.googleusercontent.com",
              "client_type": 2,
              "ios_info": {
                "bundle_id": "com.sg.ncs.breezenative"
              }
            }
          ]
        }
      }
    },
    {
      "client_info": {
        "mobilesdk_app_id": "1:962802254962:android:3be5c8a8f39ac23323aeeb",
        "android_client_info": {
          "package_name": "com.ncs.breeze.qa"
        }
      },
      "oauth_client": [
        {
          "client_id": "962802254962-q8q44r4l7v76m4hv7lq3o495ontnh3id.apps.googleusercontent.com",
          "client_type": 3
        }
      ],
      "api_key": [
        {
          "current_key": "AIzaSyAIsrSFabqgoXXW60NMzgWIkvb0Muo2zcw"
        }
      ],
      "services": {
        "appinvite_service": {
          "other_platform_oauth_client": [
            {
              "client_id": "962802254962-q8q44r4l7v76m4hv7lq3o495ontnh3id.apps.googleusercontent.com",
              "client_type": 3
            },
            {
              "client_id": "962802254962-sknlqk7hbjlgjeenbrho1nqnnv1pdneu.apps.googleusercontent.com",
              "client_type": 2,
              "ios_info": {
                "bundle_id": "com.sg.ncs.breezenative"
              }
            }
          ]
        }
      }
    }
  ],
  "configuration_version": "1"
}