<svg width="80" height="65" viewBox="0 0 80 65" fill="none" xmlns="http://www.w3.org/2000/svg">
<g filter="url(#filter0_d_8220_29057)">
<path d="M2 31.5C2 14.6553 15.6553 1 32.5 1H80V62H32.5C15.6553 62 2 48.3447 2 31.5Z" fill="white"/>
</g>
<defs>
<filter id="filter0_d_8220_29057" x="0" y="0" width="82" height="65" filterUnits="userSpaceOnUse" color-interpolation-filters="sRGB">
<feFlood flood-opacity="0" result="BackgroundImageFix"/>
<feColorMatrix in="SourceAlpha" type="matrix" values="0 0 0 0 0 0 0 0 0 0 0 0 0 0 0 0 0 0 127 0" result="hardAlpha"/>
<feOffset dy="1"/>
<feGaussianBlur stdDeviation="1"/>
<feComposite in2="hardAlpha" operator="out"/>
<feColorMatrix type="matrix" values="0 0 0 0 0 0 0 0 0 0 0 0 0 0 0 0 0 0 0.15 0"/>
<feBlend mode="normal" in2="BackgroundImageFix" result="effect1_dropShadow_8220_29057"/>
<feBlend mode="normal" in="SourceGraphic" in2="effect1_dropShadow_8220_29057" result="shape"/>
</filter>
</defs>
</svg>
