{
  "images" : [
    {
      "filename" : "search.png",
      "idiom" : "universal",
      "scale" : "1x"
    },
    {
      "appearances" : [
        {
          "appearance" : "luminosity",
          "value" : "dark"
        }
      ],
      "filename" : "search-1.png",
      "idiom" : "universal",
      "scale" : "1x"
    },
    {
      "filename" : "search@2x.png",
      "idiom" : "universal",
      "scale" : "2x"
    },
    {
      "appearances" : [
        {
          "appearance" : "luminosity",
          "value" : "dark"
        }
      ],
      "filename" : "search@2x-1.png",
      "idiom" : "universal",
      "scale" : "2x"
    },
    {
      "filename" : "search@3x.png",
      "idiom" : "universal",
      "scale" : "3x"
    },
    {
      "appearances" : [
        {
          "appearance" : "luminosity",
          "value" : "dark"
        }
      ],
      "filename" : "search@3x-1.png",
      "idiom" : "universal",
      "scale" : "3x"
    },
    {
      "filename" : "search@2x-2.png",
      "idiom" : "car",
      "scale" : "2x"
    },
    {
      "appearances" : [
        {
          "appearance" : "luminosity",
          "value" : "dark"
        }
      ],
      "filename" : "search@2x-3.png",
      "idiom" : "car",
      "scale" : "2x"
    },
    {
      "filename" : "search@3x-2.png",
      "idiom" : "car",
      "scale" : "3x"
    },
    {
      "appearances" : [
        {
          "appearance" : "luminosity",
          "value" : "dark"
        }
      ],
      "filename" : "search@3x-3.png",
      "idiom" : "car",
      "scale" : "3x"
    }
  ],
  "info" : {
    "author" : "xcode",
    "version" : 1
  }
}
