{
  "images" : [
    {
      "filename" : "Group 6503.png",
      "idiom" : "universal",
      "scale" : "1x"
    },
    {
      "appearances" : [
        {
          "appearance" : "luminosity",
          "value" : "dark"
        }
      ],
      "filename" : "Group 6503-1.png",
      "idiom" : "universal",
      "scale" : "1x"
    },
    {
      "filename" : "Group 6503-2.png",
      "idiom" : "universal",
      "scale" : "2x"
    },
    {
      "appearances" : [
        {
          "appearance" : "luminosity",
          "value" : "dark"
        }
      ],
      "filename" : "Group 6503-3.png",
      "idiom" : "universal",
      "scale" : "2x"
    },
    {
      "filename" : "Group 6503-4.png",
      "idiom" : "universal",
      "scale" : "3x"
    },
    {
      "appearances" : [
        {
          "appearance" : "luminosity",
          "value" : "dark"
        }
      ],
      "filename" : "Group 6503-5.png",
      "idiom" : "universal",
      "scale" : "3x"
    }
  ],
  "info" : {
    "author" : "xcode",
    "version" : 1
  }
}
