{
  "images" : [
    {
      "filename" : "item=carpark with low lots bar, mode=light, state=unselect.png",
      "idiom" : "universal",
      "scale" : "1x"
    },
    {
      "appearances" : [
        {
          "appearance" : "luminosity",
          "value" : "dark"
        }
      ],
      "filename" : "item=carpark low, mode=dark, state=unselected.png",
      "idiom" : "universal",
      "scale" : "1x"
    },
    {
      "filename" : "item=carpark with low lots bar, mode=light, state=unselect@2x.png",
      "idiom" : "universal",
      "scale" : "2x"
    },
    {
      "appearances" : [
        {
          "appearance" : "luminosity",
          "value" : "dark"
        }
      ],
      "filename" : "item=carpark low, mode=dark, state=unselected@2x.png",
      "idiom" : "universal",
      "scale" : "2x"
    },
    {
      "filename" : "item=carpark with low lots bar, mode=light, state=unselect@3x.png",
      "idiom" : "universal",
      "scale" : "3x"
    },
    {
      "appearances" : [
        {
          "appearance" : "luminosity",
          "value" : "dark"
        }
      ],
      "filename" : "item=carpark low, mode=dark, state=unselected@3x.png",
      "idiom" : "universal",
      "scale" : "3x"
    }
  ],
  "info" : {
    "author" : "xcode",
    "version" : 1
  }
}
