{
  "images" : [
    {
      "filename" : "Property 1=Variant15x1.png",
      "idiom" : "universal",
      "scale" : "1x"
    },
    {
      "appearances" : [
        {
          "appearance" : "luminosity",
          "value" : "dark"
        }
      ],
      "filename" : "Property 1=Variant16x1.png",
      "idiom" : "universal",
      "scale" : "1x"
    },
    {
      "filename" : "Property 1=Variant15x2.png",
      "idiom" : "universal",
      "scale" : "2x"
    },
    {
      "appearances" : [
        {
          "appearance" : "luminosity",
          "value" : "dark"
        }
      ],
      "filename" : "Property 1=Variant16x2.png",
      "idiom" : "universal",
      "scale" : "2x"
    },
    {
      "filename" : "Property 1=Variant15x3.png",
      "idiom" : "universal",
      "scale" : "3x"
    },
    {
      "appearances" : [
        {
          "appearance" : "luminosity",
          "value" : "dark"
        }
      ],
      "filename" : "Property 1=Variant16x3.png",
      "idiom" : "universal",
      "scale" : "3x"
    }
  ],
  "info" : {
    "author" : "xcode",
    "version" : 1
  }
}
