<svg width="49" height="43" viewBox="0 0 49 43" fill="none" xmlns="http://www.w3.org/2000/svg">
<path d="M47.7971 18.2206C47.7982 22.1345 46.8338 25.9871 44.9907 29.4315C43.1475 32.8759 40.4836 35.804 37.2388 37.9519C33.9939 40.0998 30.2702 41.4001 26.4029 41.7356C22.5356 42.0712 18.6463 41.4315 15.0852 39.8741C11.5242 38.3167 8.40325 35.8907 6.0036 32.8144C3.60394 29.7381 2.00092 26.1082 1.33893 22.2518C0.676932 18.3953 0.976758 14.4333 2.21139 10.7228C3.44603 7.01225 5.57669 3.66966 8.41147 0.996094H40.3846C42.7272 3.19985 44.5944 5.86662 45.8697 8.8301C47.145 11.7936 47.8011 14.9902 47.7971 18.2206Z" fill="#F5EEFC"/>
<path d="M24.3912 42.4431C10.9423 42.4431 0 31.5008 0 18.0534C0.0068689 14.716 0.696399 11.4153 2.02619 8.35423C3.35598 5.2932 5.29793 2.53657 7.73258 0.253861C7.90668 0.0909752 8.13612 0.000245368 8.37453 1.13616e-07H40.4195C40.6576 -0.000117246 40.8867 0.0906895 41.06 0.253861C43.4949 2.53635 45.437 5.29295 46.7669 8.35403C48.0967 11.4151 48.786 14.7159 48.7926 18.0534C48.7809 31.5022 37.84 42.4431 24.3912 42.4431ZM8.74365 1.8704C6.57528 3.97179 4.85032 6.48666 3.67076 9.26629C2.4912 12.0459 1.88099 15.0338 1.87624 18.0534C1.87624 30.4678 11.9767 40.5669 24.3912 40.5669C36.8056 40.5669 46.9047 30.4678 46.9047 18.0534C46.8999 15.034 46.2898 12.0462 45.1105 9.26661C43.9312 6.48703 42.2066 3.97206 40.0387 1.8704H8.74365Z" fill="#933DD8"/>
<path d="M17.5897 36.3463C16.4764 36.3463 15.3882 36.0162 14.4625 35.3977C13.5369 34.7792 12.8154 33.9001 12.3894 32.8716C11.9634 31.8431 11.8519 30.7114 12.0691 29.6195C12.2863 28.5276 12.8224 27.5247 13.6096 26.7375C14.3968 25.9503 15.3997 25.4142 16.4916 25.197C17.5834 24.9798 18.7152 25.0913 19.7437 25.5173C20.7722 25.9434 21.6513 26.6648 22.2698 27.5904C22.8883 28.5161 23.2184 29.6044 23.2184 30.7176C23.2165 32.2099 22.6228 33.6404 21.5677 34.6956C20.5125 35.7508 19.0819 36.3444 17.5897 36.3463ZM17.5897 26.027C16.662 26.027 15.7551 26.3021 14.9837 26.8175C14.2123 27.3329 13.6111 28.0655 13.2561 28.9226C12.9011 29.7797 12.8082 30.7228 12.9892 31.6327C13.1702 32.5426 13.6169 33.3784 14.2729 34.0344C14.9289 34.6904 15.7647 35.1371 16.6746 35.3181C17.5845 35.4991 18.5276 35.4062 19.3847 35.0512C20.2418 34.6961 20.9744 34.0949 21.4898 33.3236C22.0052 32.5522 22.2803 31.6453 22.2803 30.7176C22.2791 29.4739 21.7846 28.2815 20.9052 27.4021C20.0257 26.5227 18.8333 26.0282 17.5897 26.027Z" fill="#933DD8"/>
<path d="M31.66 36.3463C30.5467 36.3463 29.4585 36.0162 28.5328 35.3977C27.6072 34.7792 26.8857 33.9001 26.4597 32.8716C26.0337 31.8431 25.9222 30.7114 26.1394 29.6195C26.3566 28.5276 26.8927 27.5247 27.6799 26.7375C28.4671 25.9503 29.47 25.4142 30.5619 25.197C31.6537 24.9798 32.7855 25.0913 33.814 25.5173C34.8425 25.9434 35.7216 26.6648 36.3401 27.5904C36.9586 28.5161 37.2887 29.6044 37.2887 30.7176C37.2868 32.2099 36.6931 33.6404 35.638 34.6956C34.5828 35.7508 33.1522 36.3444 31.66 36.3463ZM31.66 26.027C30.7323 26.027 29.8254 26.3021 29.054 26.8175C28.2827 27.3329 27.6814 28.0655 27.3264 28.9226C26.9714 29.7797 26.8785 30.7228 27.0595 31.6327C27.2405 32.5426 27.6872 33.3784 28.3432 34.0344C28.9992 34.6904 29.835 35.1371 30.7449 35.3181C31.6548 35.4991 32.5979 35.4062 33.455 35.0512C34.3121 34.6961 35.0447 34.0949 35.5601 33.3236C36.0755 32.5522 36.3506 31.6453 36.3506 30.7176C36.3494 29.4739 35.8549 28.2815 34.9755 27.4021C34.0961 26.5227 32.9037 26.0282 31.66 26.027Z" fill="#933DD8"/>
<path d="M10.3201 24.152C9.20663 24.152 8.11815 23.8217 7.19238 23.203C6.26661 22.5842 5.54517 21.7048 5.11931 20.6759C4.69346 19.6471 4.58233 18.515 4.79999 17.423C5.01765 16.331 5.55432 15.328 6.3421 14.5411C7.12987 13.7541 8.13336 13.2185 9.22561 13.002C10.3179 12.7855 11.4498 12.8978 12.4782 13.3247C13.5066 13.7516 14.3853 14.4739 15.0031 15.4003C15.6209 16.3268 15.95 17.4156 15.9489 18.5291C15.9458 20.0204 15.3516 21.4497 14.2965 22.5037C13.2414 23.5577 11.8115 24.1505 10.3201 24.152ZM10.3201 13.8327C9.39267 13.8327 8.48602 14.1076 7.71478 14.6228C6.94354 15.1379 6.34234 15.8701 5.98715 16.7269C5.63195 17.5837 5.53873 18.5265 5.71924 19.4362C5.89976 20.3459 6.34591 21.1817 7.00132 21.838C7.65673 22.4942 8.49197 22.9414 9.40148 23.123C10.311 23.3047 11.2539 23.2126 12.1111 22.8585C12.9683 22.5044 13.7013 21.9041 14.2174 21.1335C14.7335 20.3629 15.0096 19.4566 15.0108 18.5291C15.0108 17.2845 14.5168 16.0909 13.6373 15.2103C12.7578 14.3297 11.5647 13.8342 10.3201 13.8327Z" fill="#933DD8"/>
<path d="M38.9256 24.152C37.8124 24.152 36.7241 23.8219 35.7985 23.2034C34.8728 22.5849 34.1514 21.7058 33.7253 20.6773C33.2993 19.6488 33.1878 18.517 33.405 17.4252C33.6222 16.3333 34.1583 15.3303 34.9455 14.5431C35.7327 13.756 36.7356 13.2199 37.8275 13.0027C38.9194 12.7855 40.0511 12.897 41.0796 13.323C42.1081 13.749 42.9872 14.4705 43.6057 15.3961C44.2242 16.3217 44.5543 17.41 44.5543 18.5233C44.5528 20.0156 43.9593 21.4464 42.904 22.5017C41.8488 23.5569 40.418 24.1505 38.9256 24.152ZM38.9256 13.8327C37.9979 13.8327 37.091 14.1078 36.3196 14.6232C35.5483 15.1386 34.9471 15.8711 34.5921 16.7282C34.237 17.5853 34.1441 18.5285 34.3251 19.4384C34.5061 20.3482 34.9529 21.184 35.6088 21.84C36.2648 22.496 37.1006 22.9427 38.0105 23.1237C38.9204 23.3047 39.8635 23.2118 40.7206 22.8568C41.5777 22.5018 42.3103 21.9006 42.8257 21.1292C43.3411 20.3579 43.6162 19.451 43.6162 18.5233C43.6147 17.2797 43.12 16.0875 42.2407 15.2082C41.3613 14.3289 40.1692 13.8342 38.9256 13.8327Z" fill="#933DD8"/>
<path d="M24.6292 24.152C23.5155 24.1529 22.4266 23.8233 21.5002 23.2051C20.5739 22.5869 19.8518 21.7078 19.4253 20.679C18.9987 19.6502 18.887 18.518 19.1041 17.4257C19.3213 16.3334 19.8576 15.33 20.6452 14.5426C21.4328 13.7552 22.4363 13.2192 23.5287 13.0023C24.6211 12.7854 25.7532 12.8975 26.7819 13.3242C27.8105 13.751 28.6895 14.4734 29.3075 15.3999C29.9255 16.3264 30.2547 17.4154 30.2536 18.5291C30.2509 20.0198 29.6574 21.4487 28.6032 22.5026C27.5489 23.5566 26.1199 24.1497 24.6292 24.152ZM24.6292 13.8327C23.7015 13.8318 22.7945 14.106 22.0227 14.6206C21.2508 15.1353 20.6489 15.8672 20.2931 16.7239C19.9372 17.5805 19.8434 18.5235 20.0234 19.4335C20.2034 20.3436 20.6492 21.1798 21.3045 21.8364C21.9597 22.4931 22.7949 22.9407 23.7045 23.1227C24.6142 23.3047 25.5573 23.2129 26.4148 22.8589C27.2722 22.5049 28.0055 21.9046 28.5218 21.1339C29.0381 20.3632 29.3143 19.4568 29.3154 18.5291C29.3154 17.2853 28.822 16.0923 27.9435 15.2118C27.0649 14.3314 25.873 13.8354 24.6292 13.8327Z" fill="#933DD8"/>
<path d="M31.4258 11.0157C30.7301 11.0157 30.05 10.8094 29.4715 10.4228C28.8931 10.0363 28.4422 9.48694 28.176 8.84418C27.9097 8.20143 27.8401 7.49417 27.9758 6.81182C28.1115 6.12947 28.4465 5.5027 28.9385 5.01075C29.4304 4.51881 30.0572 4.18379 30.7396 4.04806C31.4219 3.91233 32.1292 3.98199 32.7719 4.24823C33.4147 4.51446 33.9641 4.96533 34.3506 5.5438C34.7371 6.12226 34.9434 6.80235 34.9434 7.49807C34.9422 8.43063 34.5713 9.32467 33.9118 9.9841C33.2524 10.6435 32.3584 11.0145 31.4258 11.0157ZM31.4258 5.38837C31.0082 5.38837 30.6 5.51223 30.2528 5.74427C29.9056 5.9763 29.635 6.30611 29.4752 6.69196C29.3155 7.0778 29.2738 7.50235 29.3553 7.91191C29.4369 8.32147 29.6381 8.69765 29.9335 8.99284C30.2289 9.28803 30.6052 9.48898 31.0148 9.57027C31.4245 9.65156 31.849 9.60955 32.2347 9.44954C32.6204 9.28953 32.9501 9.01871 33.1819 8.67134C33.4137 8.32397 33.5372 7.91567 33.5369 7.49807C33.5342 6.93979 33.3107 6.40528 32.9151 6.01134C32.5195 5.6174 31.9841 5.39605 31.4258 5.39567V5.38837Z" fill="#933DD8"/>
<path d="M17.8242 11.0157C17.1285 11.0157 16.4484 10.8094 15.87 10.4228C15.2915 10.0363 14.8406 9.48694 14.5744 8.84418C14.3082 8.20143 14.2385 7.49417 14.3742 6.81182C14.51 6.12947 14.845 5.5027 15.3369 5.01075C15.8289 4.51881 16.4556 4.18379 17.138 4.04806C17.8203 3.91233 18.5276 3.98199 19.1704 4.24823C19.8131 4.51446 20.3625 4.96533 20.749 5.5438C21.1355 6.12226 21.3418 6.80235 21.3418 7.49807C21.3411 8.43075 20.9702 9.32502 20.3107 9.98452C19.6512 10.644 18.7569 11.0149 17.8242 11.0157ZM17.8242 5.38837C17.4066 5.38837 16.9984 5.51223 16.6512 5.74427C16.304 5.9763 16.0334 6.30611 15.8737 6.69196C15.7139 7.0778 15.6722 7.50235 15.7538 7.91191C15.8353 8.32147 16.0366 8.69765 16.332 8.99284C16.6273 9.28803 17.0036 9.48898 17.4133 9.57027C17.8229 9.65156 18.2474 9.60955 18.6331 9.44954C19.0189 9.28953 19.3485 9.01871 19.5803 8.67134C19.8121 8.32397 19.9357 7.91567 19.9354 7.49807C19.9327 6.93979 19.7091 6.40528 19.3135 6.01134C18.918 5.6174 18.3825 5.39605 17.8242 5.39567V5.38837Z" fill="#933DD8"/>
</svg>
