{
  "images" : [
    {
      "filename" : "Property 1=Navigation Alert Icon, Property 2=Road Works.png",
      "idiom" : "universal",
      "scale" : "1x"
    },
    {
      "appearances" : [
        {
          "appearance" : "luminosity",
          "value" : "dark"
        }
      ],
      "filename" : "Property 1=Navigation Alert Icon, Property 2=Road Works(dark).png",
      "idiom" : "universal",
      "scale" : "1x"
    },
    {
      "filename" : "Property 1=Navigation Alert Icon, Property 2=Road Works@2x.png",
      "idiom" : "universal",
      "scale" : "2x"
    },
    {
      "appearances" : [
        {
          "appearance" : "luminosity",
          "value" : "dark"
        }
      ],
      "filename" : "Property 1=Navigation Alert Icon, Property 2=Road Works(dark)@2x.png",
      "idiom" : "universal",
      "scale" : "2x"
    },
    {
      "filename" : "Property 1=Navigation Alert Icon, Property 2=Road Works@3x.png",
      "idiom" : "universal",
      "scale" : "3x"
    },
    {
      "appearances" : [
        {
          "appearance" : "luminosity",
          "value" : "dark"
        }
      ],
      "filename" : "Property 1=Navigation Alert Icon, Property 2=Road Works(dark)@3x.png",
      "idiom" : "universal",
      "scale" : "3x"
    }
  ],
  "info" : {
    "author" : "xcode",
    "version" : 1
  }
}
