<svg width="55" height="55" viewBox="0 0 55 55" fill="none" xmlns="http://www.w3.org/2000/svg">
<g clip-path="url(#clip0_18014_250959)">
<path d="M55 27.4999C55 42.688 42.6883 54.9998 27.5002 54.9998C12.3126 54.9998 0 42.688 0 27.4999C0 12.3117 12.3126 0 27.5002 0C42.6883 0 55 12.3117 55 27.4999Z" fill="#5DA7FF"/>
<path d="M17.2278 12.5576C17.2214 12.5571 17.2151 12.5576 17.2087 12.5576C16.9988 12.5649 16.8347 12.7329 16.8347 12.9404V13.438C16.8347 14.1143 16.5622 14.7549 16.0676 15.2437C15.571 15.7329 14.9167 16.0029 14.2244 16.0054H14.2165C13.5188 16.0054 12.8621 15.7407 12.3669 15.2603C11.8913 14.7983 11.6204 14.1914 11.5998 13.543H11.9294C12.0134 13.543 12.0657 13.4551 12.0237 13.3848L11.4812 12.4722C11.4265 12.3799 11.3284 12.3252 11.2185 12.3252C11.1086 12.3252 11.01 12.3799 10.9553 12.4722L10.4133 13.3848C10.3713 13.4551 10.4231 13.543 10.5071 13.543H10.8235C10.8445 14.3936 11.1951 15.1899 11.8171 15.7935C12.4582 16.416 13.3108 16.7588 14.2165 16.7588C15.1233 16.7588 15.9753 16.416 16.6169 15.7935C17.2576 15.1714 17.6111 14.3442 17.6111 13.4639V12.9355C17.6111 12.7285 17.4402 12.5596 17.2278 12.5576L17.2278 12.5576Z" fill="#5DA7FF"/>
</g>
<path d="M15.4496 30.421V40.1562C15.4496 40.6203 15.837 41 16.3105 41H38.6948C39.1683 41 39.5558 40.6203 39.5558 40.1562V30.421C39.1953 30.1309 37.1505 28.4011 27.5027 20.0634C17.8118 28.4433 15.794 30.1415 15.4496 30.421ZM32.3508 29.034C33.8359 30.2469 33.9166 32.4197 32.593 33.7328L28.0354 38.2471C27.7394 38.5372 27.2659 38.5372 26.97 38.2471L22.4124 33.7328C21.0887 32.4197 21.1641 30.2469 22.6438 29.034C23.9352 27.9792 25.8562 28.1691 27.0346 29.3399L27.4973 29.7987L27.9601 29.3399C29.1438 28.1691 31.0648 27.9792 32.3508 29.034ZM15.4496 30.421V30.4051C15.4496 30.4051 15.3043 30.537 15.4496 30.421ZM42.7143 26.4604L39.5558 23.7286V16.5301C39.5558 16.066 39.1683 15.6863 38.6948 15.6863H35.2511C34.7776 15.6863 34.3902 16.066 34.3902 16.5301V19.2566L28.9394 14.5419C28.1161 13.8194 26.8839 13.8194 26.0606 14.5419L12.2857 26.4604C11.9305 26.7716 11.9036 27.3042 12.2211 27.6523L13.3726 28.9074C13.6901 29.2555 14.2335 29.2818 14.5887 28.9707L26.9323 18.3073C27.2552 18.0278 27.7448 18.0278 28.0731 18.3073L40.4113 28.976C40.7665 29.2871 41.3099 29.2608 41.6274 28.9127L42.7789 27.6576C43.0964 27.3042 43.0695 26.7716 42.7143 26.4604ZM39.5558 30.4051V30.421C39.7118 30.5423 39.5558 30.4051 39.5558 30.4051Z" fill="white"/>
<defs>
<clipPath id="clip0_18014_250959">
<rect width="55" height="54.9998" fill="white"/>
</clipPath>
</defs>
</svg>
