{
  "images" : [
    {
      "filename" : "Name=Available Only, Mode=Light.svg",
      "idiom" : "universal",
      "scale" : "1x"
    },
    {
      "appearances" : [
        {
          "appearance" : "luminosity",
          "value" : "dark"
        }
      ],
      "filename" : "Sidebar Icons.svg",
      "idiom" : "universal",
      "scale" : "1x"
    },
    {
      "filename" : "Name=Available Only, Mode=Light@2x.svg",
      "idiom" : "universal",
      "scale" : "2x"
    },
    {
      "appearances" : [
        {
          "appearance" : "luminosity",
          "value" : "dark"
        }
      ],
      "filename" : "Sidebar Icons@2x.svg",
      "idiom" : "universal",
      "scale" : "2x"
    },
    {
      "filename" : "Name=Available Only, Mode=Light@3x.svg",
      "idiom" : "universal",
      "scale" : "3x"
    },
    {
      "appearances" : [
        {
          "appearance" : "luminosity",
          "value" : "dark"
        }
      ],
      "filename" : "Sidebar Icons@3x.svg",
      "idiom" : "universal",
      "scale" : "3x"
    }
  ],
  "info" : {
    "author" : "xcode",
    "version" : 1
  }
}
